…
``` r
library(lpSolve)
library(stringr)
library(RCurl)
library(jsonlite)
library(plyr)
library(readr)
```

``` r
dfr <- read_tsv("/Users/dom/Documents/FF/16-17/scrapes/16-08-11-scrape.txt")
dfr[c("web_name", "now_cost")]
```

    ## # A tibble: 505 x 2
    ##          web_name now_cost
    ##             <chr>    <int>
    ## 1    Schneiderlin       50
    ## 2            Rojo       55
    ## 3         Pereira       45
    ## 4         Carrick       45
    ## 5  Schweinsteiger       55
    ## 6         Januzaj       55
    ## 7         Martial       95
    ## 8           Pogba       85
    ## 9         Herrera       65
    ## 10       Valencia       55
    ## # ... with 495 more rows
…
